Ess 330 Project Updates
…
# Then define your recipe
forb_recipe <- recipe(sl_forb_late_585 ~ sl_forb_mid_585 + sl_forb_current + COVER_PCT, data = ex_Pts_ml_df) %>%
  step_naomit(all_predictors(), all_outcomes()) %>%
  step_normalize(all_numeric_predictors())

table(ex_Pts_ml_df$sl_forb_late_585)

 0  1  2  3  4 
15 68 27 13  4 

#prep and bake 
prep(forb_recipe) %>% bake(new_data = NULL)

# A tibble: 127 × 4
   sl_forb_mid_585 sl_forb_current COVER_PCT sl_forb_late_585
   <fct>           <fct>           <fct>     <fct>           
 1 1               2               2         2               
 2 0               0               2         0               
 3 2               2               2         1               
 4 1               1               2         1               
 5 1               1               2         1               
 6 1               1               2         1               
 7 1               1               2         1               
 8 1               1               2         1               
 9 1               3               2         1               
10 1               3               2         1               
# ℹ 117 more rows
…
